metaMER – analysis
…
metaMER_results <- metaMER_results |> dplyr::select(unique_id, 
                                 dplyr::everything()) 

metaMER_results |> dplyr::tibble()

# A tibble: 626 × 14
   unique_id      citekey stimulus_n feature_n participant_n library_id model_id
   <chr>          <chr>   <chr>      <chr>     <chr>         <chr>      <chr>   
 1 agarwal2021an… agarwa… " ISMIR20… " 'eight… " not specif… not speci… SVR KMB…
 2 agarwal2021an… agarwa… " ISMIR20… " 'eight… " not specif… not speci… SVR KMB…
 3 agarwal2021an… agarwa… " ISMIR20… " 'eight… " not specif… not speci… SVR KMB…
 4 agarwal2021an… agarwa… " ISMIR20… " 'eight… " not specif… not speci… SVR KMB…
 5 agarwal2021an… agarwa… " ISMIR20… " 'eight… " not specif… not speci… SVR KMB…
 6 agarwal2021an… agarwa… " ISMIR20… " 'eight… " not specif… not speci… SVR KMB…
 7 agarwal2021an… agarwa… " ISMIR20… " 'eight… " not specif… not speci… SVR KMB…
 8 agarwal2021an… agarwa… " ISMIR20… " 'eight… " not specif… not speci… SVR KMB…
 9 agarwal2021an… agarwa… " ISMIR20… " 'eight… " not specif… not speci… SVR KMB…
10 agarwal2021an… agarwa… " ISMIR20… " 'eight… " not specif… not speci… SVR KMB…
# ℹ 616 more rows
# ℹ 7 more variables: feature_id <chr>, data_id <chr>, experiment_id <chr>,
#   dimension <chr>, measure <chr>, statistic <chr>, values <dbl>
…
