metaMER – preprocessing
…
metaMER_results <- metaMER_results |> dplyr::select(unique_id, 
                                 dplyr::everything()) 

metaMER_results |> dplyr::tibble()

# A tibble: 1,196 × 17
   unique_id           citekey model_category stimulus_n feature_n participant_n
   <chr>               <chr>   <chr>          <chr>      <chr>     <chr>        
 1 agarwal2021an-nots… agarwa… " classificat… " ISMIR20… " 'eight… " not specif…
 2 agarwal2021an-nots… agarwa… " classificat… " ISMIR20… " 'eight… " not specif…
 3 agarwal2021an-nots… agarwa… " classificat… " ISMIR20… " 'eight… " not specif…
 4 agarwal2021an-nots… agarwa… " classificat… " ISMIR20… " 'eight… " not specif…
 5 agarwal2021an-nots… agarwa… " classificat… " ISMIR20… " 'eight… " not specif…
 6 agarwal2021an-nots… agarwa… " classificat… " ISMIR20… " 'eight… " not specif…
 7 agarwal2021an-nots… agarwa… " classificat… " ISMIR20… " 'eight… " not specif…
 8 agarwal2021an-nots… agarwa… " classificat… " ISMIR20… " 'eight… " not specif…
 9 agarwal2021an-nots… agarwa… " classificat… " ISMIR20… " 'eight… " not specif…
10 agarwal2021an-nots… agarwa… " classificat… " ISMIR20… " 'eight… " not specif…
# ℹ 1,186 more rows
# ℹ 11 more variables: feature_source <chr>, feature_reduction_method <chr>,
#   library_id <chr>, model_id <chr>, feature_id <chr>, data_id <chr>,
#   experiment_id <chr>, dimension <chr>, measure <chr>, statistic <chr>,
#   values <dbl>
…
