metaMER - Library Parser
…
meta_df[-which(str_detect(meta_df$final_notes, '!EXCL!')),] -> included_studies

included_studies |> dplyr::tibble()

# A tibble: 37 × 28
   citekey       paradigm notes_ca notes_te emotions emotion_locus stimulus_type
   <chr>         <chr>    <chr>    <chr>    <chr>    <chr>         <chr>        
 1 agarwal2021an " class… " inclu… " inclu… " discr… " perceived … " Hindi musi…
 2 alvarez2023ri " class… " inclu… " inclu… " discr… " perceived … " Spotify "  
 3 bai2017mu     " class… " inclu… " inclu… " valen… " perceived … " MediaEval …
 4 bhuvanakumar… " class… " inclu… " inclu… " quadr… " not specif… " EMOPIA; po…
 5 dufour2021us  " class… " inclu… " inclu… "  c1 (… " perceived … " pop, disco…
 6 hizlisoy2021… " class… " inclu… " inclu… " valen… " perceived … " Turkish tr…
 7 nguyen2017an  " class… " inclu… " inclu… " 288 e… " perceived … " pop  "     
 8 panda2020no   " class… " inclu… " inclu… " valen… " perceived … " AllMusic  "
 9 sorussa2020em " class… " inclu… " inclu… " valen… " perceived … " DEAM  "    
10 yang2021an    " class… " inclu… " inclu… " happy… " perceived … " MediaEval …
# ℹ 27 more rows
# ℹ 21 more variables: stimulus_genre <chr>, stimulus_duration <chr>,
#   stimulus_duration_unit <chr>, stimulus_n <chr>, feature_n <chr>,
#   participant_n <chr>, participant_expertise <chr>, participant_origin <chr>,
#   participant_sampling <chr>, participant_task <chr>,
#   feature_categories <chr>, feature_source <chr>,
#   feature_reduction_method <chr>, model_category <chr>, model_detail <chr>, …
…
